*** Darwin 19x4 ***
Turn = 0.
  0123
0 .t.t
1 ....
2 .r..
3 t..r
4 ....
5 ...f
6 ....
7 ..t.
8 h...
9 ....
0 ....
1 ....
2 .r..
3 ....
4 t...
5 ...t
6 ..t.
7 ....
8 ..r.

Turn = 24.
  0123
0 .t.t
1 ....
2 t...
3 t...
4 t...
5 ....
6 ....
7 ..tt
8 h...
9 ....
0 ....
1 ....
2 ....
3 ....
4 r...
5 tt..
6 .t..
7 ....
8 ...r

Turn = 48.
  0123
0 .r.t
1 .r..
2 t...
3 t...
4 .r..
5 .r..
6 .r..
7 ..tt
8 ....
9 ...r
0 ....
1 ....
2 ...r
3 ....
4 r...
5 ....
6 ....
7 ....
8 ....

*** Darwin 16x5 ***
Turn = 0.
  01234
0 hhtfh
1 ffttt
2 trrrr
3 frttt
4 rrhth
5 thtft
6 rrtft
7 rftrh
8 tfrf.
9 thrhf
0 htr.t
1 fftth
2 fhtff
3 rhtrt
4 frftf
5 r.hth

Turn = 1.
  01234
0 hhtfh
1 ffrtr
2 trtrr
3 frttt
4 rrrtt
5 rrrtt
6 rrtrt
7 rftrh
8 trrr.
9 trr.t
0 hrtrt
1 ffttt
2 fhtff
3 rhttt
4 r.ttf
5 rrhth

Turn = 2.
  01234
0 hhrtt
1 ffttr
2 ttttr
3 ftttt
4 rrttt
5 rrrtr
6 rrtrt
7 rttrh
8 trr..
9 trrtt
0 httrt
1 fftrr
2 fttft
3 rhttt
4 r.ttf
5 rrhtt

*** Darwin 15x13 ***
Turn = 0.
  0123456789012
0 tr.....hhhfht
1 rf..ft.h..fh.
2 tr..t.ftft.hr
3 f..r....t....
4 ffh..fhhtt..h
5 f...r.....rf.
6 .f.hth...f.t.
7 ..t.fth.h..ff
8 rt.th...rt.tr
9 r.rr.f.....t.
0 tf..t.r.f.t..
1 ..tfhrf..frt.
2 h..t...hhf...
3 ..r...frhfrrh
4 r...trfhrt...

Turn = 24.
  0123456789012
0 t...tr.r....r
1 t..ttttttttr.
2 rrttttrttttrr
3 tt...rtttrr..
4 tt....t..rr..
5 tt....r......
6 .tt.......r..
7 ttt....r...rr
8 .t..tt.r..r.r
9 ttt.tt..r..rr
0 ttttt....r.rr
1 tt.ttr...r.rr
2 t..t.r..rrtt.
3 t.......rrr..
4 ...r..rr..rrr

*** Darwin 9x13 ***
Turn = 0.
  0123456789012
0 ..fftrrfrrhrt
1 t.r.f..frhhth
2 .frhrfttttrhf
3 tttthfthhtthf
4 hrfrth.frtfh.
5 h.fhrfffhhthr
6 trfthrf.rhfht
7 fhrfthfrtrtrr
8 fhtttrrt..r.r

Turn = 25.
  0123456789012
0 ttt...tttt.tt
1 tttt.tttttttt
2 ttt.ttttttttt
3 ttttttttttttt
4 tttttt.tttttt
5 tttttttttttt.
6 .ttttttt.ttt.
7 ttttrtttt.ttt
8 .ttttttttttt.

*** Darwin 5x1 ***
Turn = 0.
  0
0 .
1 .
2 t
3 .
4 .

Turn = 14.
  0
0 .
1 .
2 t
3 .
4 .

Turn = 28.
  0
0 .
1 .
2 t
3 .
4 .

*** Darwin 3x4 ***
Turn = 0.
  0123
0 .rfr
1 th..
2 fhtt

Turn = 10.
  0123
0 rr.r
1 ..rr
2 tttr

*** Darwin 12x6 ***
Turn = 0.
  012345
0 rh.hfr
1 frfr.t
2 t.rf.h
3 f.fhrr
4 .f.frh
5 ..rfrf
6 rfhfth
7 rht.fr
8 .htfrt
9 ..trff
0 tfrhrr
1 .tfhtf

Turn = 6.
  012345
0 rrrrrr
1 rr.r.r
2 rr.rrr
3 rrrr..
4 rrrr.r
5 ...frr
6 rfrtr.
7 .hrtrr
8 rrrttr
9 ..rrtr
0 .trrtr
1 rttttr

*** Darwin 8x19 ***
Turn = 0.
  0123456789012345678
0 .r..t.tfh..h..f..f.
1 h....h.f.f...h.f.th
2 r.........hht.r....
3 .f....f..ff.rht.ffr
4 ...hhfrr..fhfr.ttt.
5 .h....t.t.hr..ff..f
6 f.tf.ht.f.ttr.h....
7 ...f...fff.r..t....

Turn = 10.
  0123456789012345678
0 ..rr.rttt.h.rr.rr.r
1 .......t.rr.r....r.
2 .r...r.rr.......r..
3 .f....tr..f..r.rrt.
4 .hh...t..ttt.r.r.tr
5 r..t.tt...r.rrrr..f
6 f.tt.tt.t.tt....r.h
7 ...t...ttt.t..t.r..

Turn = 20.
  0123456789012345678
0 rr..r....rrrr.r...r
1 r....rrr.r..rrr...r
2 ...r..r...r.rrr..r.
3 ....r..rrrr.r...r..
4 .r.r.ttt..t.....r..
5 ..rr.tt...t.t..r.rr
6 ..r..tt.ttttt......
7 r..t...ttt.ttt.r.rr

*** Darwin 1x9 ***
Turn = 0.
  012345678
0 .t.hh.t..

Turn = 9.
  012345678
0 .t.hh.t..

*** Darwin 8x18 ***
Turn = 0.
  012345678901234567
0 ..hhfhff..frh.rf.r
1 fh.t.hf..rt.fh.hff
2 httrr.hhrtfh.rr...
3 .tr.ftth..rht.t.hh
4 hrtrr.f.ffhh.frt.h
5 rhrttttthhffhrtthh
6 rt.trtrr.hrthhffh.
7 trhhtfffrfrh.frt.t

Turn = 21.
  012345678901234567
0 ..ttttt...rrrttt..
1 .tttt....trrr.rtr.
2 tttt.tttttrr..rrr.
3 .rtrtttttrr...rr..
4 ttttt.tttttrrrr.r.
5 .tttttttttrttt.rr.
6 .rrtttttttttrrrrrr
7 rttrtt.tttttrrrrrr

Turn = 42.
  012345678901234567
0 ..ttttttt...r.r.rr
1 .tttt....tttt.r.r.
2 tttt.tttttttttt..r
3 .tttttttttttttt..r
4 ttttt.tttttttt..r.
5 ttttttttttttttt...
6 .ttttttttttttttt.r
7 .ttttt.ttttttttrrr

*** Darwin 2x20 ***
Turn = 0.
  01234567890123456789
0 .ffhhf....t.thhthtth
1 rth.rt..fffhtthftf..

Turn = 19.
  01234567890123456789
0 r.tttr...rr.rrttttt.
1 r.ttrrr..r.rrttttt.h

Turn = 38.
  01234567890123456789
0 .ttttrrr..rrr.rrr..r
1 .tttrrr.r.r..rrrrrrr

*** Darwin 13x16 ***
Turn = 0.
  0123456789012345
0 r...f.hf.h.hffr.
1 fr.t.ff.ht.ttttt
2 .hrfhrr.frtrht.t
3 r.hfffhtrr.fhh.t
4 r.fhr.tf.rrhtrhh
5 .trfhttth.h..thh
6 httfrffr.h.fffht
7 .rtfrhr.rhf.r..f
8 rffth...thr.ftf.
9 tthhhftfr.thh.h.
0 ..hrhrt...hr.ffh
1 rrh.fr.t.frtthff
2 fttttr.f.hrrr.r.

Turn = 12.
  0123456789012345
0 rrrrrr.t..ttttt.
1 rr....tt.ttttrtt
2 r.rtt..tttt.rrtt
3 ..ttr..ttrrrrrrt
4 rrtrr.rr.rrrrrrt
5 rrrrrtrrr......t
6 rrrtttrrrr..r.rt
7 rrrttrrtrrrr.r.t
8 rr.tt..ttrrr..tt
9 r.trt.tt..rrrr.r
0 .rrrtt.trr.rrrt.
1 r.rtt..rr.rr.rrt
2 .rttttttt.rrr.rt

*** Darwin 7x5 ***
Turn = 0.
  01234
0 .....
1 t..h.
2 .t..t
3 ...rr
4 .....
5 ...fh
6 h.fr.

Turn = 1.
  01234
0 .....
1 t....
2 .t.ht
3 ..r.r
4 .....
5 ...rh
6 h.fr.

Turn = 2.
  01234
0 .....
1 t....
2 .t..t
3 .r.h.
4 ....r
5 ...rr
6 h.fr.

*** Darwin 12x16 ***
Turn = 0.
  0123456789012345
0 ...r......h.....
1 r.h..f.....h....
2 .............t..
3 ....f....f...t..
4 ...t...f........
5 ...rft......f...
6 ...............r
7 ....r...........
8 ...f........r...
9 .........fh.r..r
0 .r..h.....r.....
1 ....r.hr.f......

Turn = 22.
  0123456789012345
0 .....r...r.r....
1 ...r...r........
2 r......r...rtt..
3 ..r..........t..
4 .......f.....t..
5 ...ttt........rr
6 ..............r.
7 rr............rr
8 r..............r
9 ...........r....
0 .....r..........
1 .rr....r........

*** Darwin 7x7 ***
Turn = 0.
  0123456
0 ....r.r
1 .f.ht..
2 f......
3 ...h...
4 h......
5 h..t...
6 f......

Turn = 23.
  0123456
0 .......
1 .f.....
2 f.....r
3 .......
4 ...tt..
5 h.tt...
6 f.t...r

Turn = 46.
  0123456
0 .......
1 .f....r
2 f......
3 .......
4 ...tt..
5 h.ttt..
6 f.t....

*** Darwin 12x10 ***
Turn = 0.
  0123456789
0 ......f...
1 ..........
2 .fr.......
3 .........h
4 ..........
5 ..........
6 ..........
7 ..........
8 ..h.......
9 ...r......
0 ..........
1 ........r.

Turn = 22.
  0123456789
0 ..h.....rr
1 ..........
2 .f........
3 ..........
4 ..........
5 ..........
6 ..........
7 ..........
8 ..........
9 ..........
0 ..........
1 .......rrr

*** Darwin 9x17 ***
Turn = 0.
  01234567890123456
0 rhfftfrr.hthrfrth
1 httfhrftthfhhrfht
2 fhtftf.tfftfthhrh
3 frhththrr.h.h.thf
4 htrrhhhrrftfhttt.
5 rthfhttfrffftfrrh
6 rrttfthtttfh.rrff
7 frrrhfrf.tff..thf
8 trtrrfhrfhhhftthr

Turn = 20.
  01234567890123456
0 tttttrrr..rrrtttt
1 ttttttr.rrrrtttrr
2 ttttttrtttrtttttt
3 ttttttrtttr..tttt
4 tttttrtttrtt.trt.
5 ttttttttttt.rrrtt
6 tttrrrtrttttttttt
7 ttttrrrrtttttt.tt
8 ttttt.rrrrrtttttt

Turn = 40.
  01234567890123456
0 tttttttttttrrrrrr
1 tttttttttt.trr.rr
2 tttttttttttttt.r.
3 ttttttttttt..t.tr
4 ttttttttttttttttt
5 ttttttttttt.ttttt
6 ttttttttttttttttt
7 tttttttttttttt.tt
8 ttttttt.ttttttttt

*** Darwin 7x10 ***
Turn = 0.
  0123456789
0 t.........
1 ...f......
2 ..r.......
3 ....r.....
4 ..........
5 .r......h.
6 ........fr

Turn = 6.
  0123456789
0 r.......h.
1 r..f......
2 ..........
3 ..........
4 r........r
5 ..........
6 .....rr...

Turn = 12.
  0123456789
0 ..rr....rr
1 .....rr...
2 ..........
3 ..........
4 r.........
5 ..........
6 .r........

*** Darwin 13x3 ***
Turn = 0.
  012
0 rhh
1 rrr
2 rfr
3 rtf
4 rth
5 ff.
6 tth
7 tr.
8 th.
9 htr
0 rrr
1 rff
2 ttr

Turn = 5.
  012
0 rrr
1 rrr
2 rrr
3 rrr
4 rrr
5 rrr
6 rrr
7 rrr
8 r.r
9 rr.
0 rr.
1 rrr
2 trr

Turn = 10.
  012
0 rrr
1 rrr
2 rrr
3 rrr
4 rrr
5 rrr
6 rrr
7 rrr
8 r.r
9 rr.
0 rrr
1 t.t
2 ttt

*** Darwin 8x14 ***
Turn = 0.
  01234567890123
0 ....f..h...fhh
1 ....t..r.h.f.r
2 .t............
3 .hfr.r...r...t
4 .ht.r.........
5 ..f....fr.r...
6 ...f.h...t....
7 ....f....f...t

Turn = 12.
  01234567890123
0 ...r...r.rrrr.
1 rt............
2 tt...........r
3 ..t...........
4 .tt..r......rr
5 r......r......
6 ...rr....tr..t
7 r........trrtt
